2024-03-26 01:28:16.571 +03:00 [FTL] Action 'Users.API.Controllers.UserControllers.Post (Users.API)' has more than one parameter that was specified or inferred as bound from request body. Only one parameter per action may be bound from body. Inspect the following parameters, and use 'FromQueryAttribute' to specify bound from query, 'FromRouteAttribute' to specify bound from route, and 'FromBodyAttribute' for parameters to be bound from body:
CreateUsersCommand createUsersCommand
IMediator mediator
2024-03-26 01:33:51.962 +03:00 [FTL] Some services are not able to be constructed (Error while validating the service descriptor 'ServiceType: MediatR.IRequestHandler`2[Users.Appication.Command.CreateUser.CreateUsersCommand,Users.Application.Dto.GetUserDto] Lifetime: Transient ImplementationType: Users.Appication.Command.CreateUser.CreateUserCommandHandler': Unable to resolve service for type 'Common.Repositories.IRepository`1[Common.Domain.ApplicationUser]' while attempting to activate 'Users.Appication.Command.CreateUser.CreateUserCommandHandler'.) (Error while validating the service descriptor 'ServiceType: FluentValidation.IValidator`1[Users.Application.Command.DeleteUser.DeleteUserCommand] Lifetime: Scoped ImplementationType: Users.Application.Command.DeleteUser.DeleteUserCommandValidator': A suitable constructor for type 'Users.Application.Command.DeleteUser.DeleteUserCommandValidator' could not be located. Ensure the type is concrete and services are registered for all parameters of a public constructor.) (Error while validating the service descriptor 'ServiceType: Users.Application.Command.DeleteUser.DeleteUserCommandValidator Lifetime: Scoped ImplementationType: Users.Application.Command.DeleteUser.DeleteUserCommandValidator': A suitable constructor for type 'Users.Application.Command.DeleteUser.DeleteUserCommandValidator' could not be located. Ensure the type is concrete and services are registered for all parameters of a public constructor.)
2024-03-26 11:10:13.119 +03:00 [FTL] Some services are not able to be constructed (Error while validating the service descriptor 'ServiceType: MediatR.IRequestHandler`2[Users.Appication.Command.CreateUser.CreateUsersCommand,Users.Application.Dto.GetUserDto] Lifetime: Transient ImplementationType: Users.Appication.Command.CreateUser.CreateUserCommandHandler': Unable to resolve service for type 'Common.Repositories.IRepository`1[Common.Domain.ApplicationUser]' while attempting to activate 'Users.Appication.Command.CreateUser.CreateUserCommandHandler'.) (Error while validating the service descriptor 'ServiceType: FluentValidation.IValidator`1[Users.Application.Command.DeleteUser.DeleteUserCommand] Lifetime: Scoped ImplementationType: Users.Application.Command.DeleteUser.DeleteUserCommandValidator': A suitable constructor for type 'Users.Application.Command.DeleteUser.DeleteUserCommandValidator' could not be located. Ensure the type is concrete and services are registered for all parameters of a public constructor.) (Error while validating the service descriptor 'ServiceType: Users.Application.Command.DeleteUser.DeleteUserCommandValidator Lifetime: Scoped ImplementationType: Users.Application.Command.DeleteUser.DeleteUserCommandValidator': A suitable constructor for type 'Users.Application.Command.DeleteUser.DeleteUserCommandValidator' could not be located. Ensure the type is concrete and services are registered for all parameters of a public constructor.)
2024-03-26 16:14:58.012 +03:00 [FTL] Some services are not able to be constructed (Error while validating the service descriptor 'ServiceType: MediatR.IRequestHandler`2[Users.Services.Query.GetList.GetListQuery,System.Collections.Generic.IReadOnlyCollection`1[Users.Application.Dto.GetUserDto]] Lifetime: Transient ImplementationType: Users.Services.Query.GetList.GetListQueryHandler': Unable to resolve service for type 'Common.Repositories.IRepository`1[Common.Domain.ApplicationUser]' while attempting to activate 'Users.Services.Query.GetList.GetListQueryHandler'.) (Error while validating the service descriptor 'ServiceType: MediatR.IRequestHandler`2[Users.Services.Query.GetCount.GetCountQuery,System.Int32] Lifetime: Transient ImplementationType: Users.Services.Query.GetCount.GetCountQueryHandler': Unable to resolve service for type 'Common.Repositories.IRepository`1[Common.Domain.ApplicationUser]' while attempting to activate 'Users.Services.Query.GetCount.GetCountQueryHandler'.) (Error while validating the service descriptor 'ServiceType: MediatR.IRequestHandler`2[Users.Appication.Command.CreateUser.CreateUsersCommand,Users.Application.Dto.GetUserDto] Lifetime: Transient ImplementationType: Users.Appication.Command.CreateUser.CreateUserCommandHandler': Unable to resolve service for type 'Common.Repositories.IRepository`1[Common.Domain.ApplicationUser]' while attempting to activate 'Users.Appication.Command.CreateUser.CreateUserCommandHandler'.) (Error while validating the service descriptor 'ServiceType: MediatR.IRequestHandler`2[Users.Application.Query.GetById.GetByIdQuery,Users.Application.Dto.GetUserDto] Lifetime: Transient ImplementationType: Users.Application.Query.GetById.GetByIdQueryHandler': Unable to resolve service for type 'Common.Repositories.IRepository`1[Common.Domain.ApplicationUser]' while attempting to activate 'Users.Application.Query.GetById.GetByIdQueryHandler'.) (Error while validating the service descriptor 'ServiceType: MediatR.IRequestHandler`2[Users.Application.Command.UpdateUser.UpdateUserCommand,Users.Application.Dto.GetUserDto] Lifetime: Transient ImplementationType: Users.Application.Command.UpdateUser.UpdateUserCommandHandler': Unable to resolve service for type 'Common.Repositories.IRepository`1[Common.Domain.ApplicationUser]' while attempting to activate 'Users.Application.Command.UpdateUser.UpdateUserCommandHandler'.) (Error while validating the service descriptor 'ServiceType: MediatR.IRequestHandler`2[Users.Application.Command.DeleteUser.DeleteUserCommand,System.Boolean] Lifetime: Transient ImplementationType: Users.Application.Command.DeleteUser.DeleteUserCommandHandler': Unable to resolve service for type 'Common.Repositories.IRepository`1[Common.Domain.ApplicationUser]' while attempting to activate 'Users.Application.Command.DeleteUser.DeleteUserCommandHandler'.) (Error while validating the service descriptor 'ServiceType: FluentValidation.IValidator`1[Users.Application.Command.DeleteUser.DeleteUserCommand] Lifetime: Scoped ImplementationType: Users.Application.Command.DeleteUser.DeleteUserCommandValidator': A suitable constructor for type 'Users.Application.Command.DeleteUser.DeleteUserCommandValidator' could not be located. Ensure the type is concrete and services are registered for all parameters of a public constructor.) (Error while validating the service descriptor 'ServiceType: Users.Application.Command.DeleteUser.DeleteUserCommandValidator Lifetime: Scoped ImplementationType: Users.Application.Command.DeleteUser.DeleteUserCommandValidator': A suitable constructor for type 'Users.Application.Command.DeleteUser.DeleteUserCommandValidator' could not be located. Ensure the type is concrete and services are registered for all parameters of a public constructor.)
